{"frames": {

"fish0.png":
{
	"frame": {"x":0,"y":0,"w":170,"h":45},
	"rotated": false,
	"trimmed": false,
	"spriteSourceSize": {"x":0,"y":0,"w":170,"h":45},
	"sourceSize": {"w":170,"h":45}
},
"fish1.png":
{
	"frame": {"x":356,"y":0,"w":156,"h":71},
	"rotated": false,
	"trimmed": false,
	"spriteSourceSize": {"x":0,"y":0,"w":156,"h":71},
	"sourceSize": {"w":156,"h":71}
},
"fish2.png":
{
	"frame": {"x":0,"y":146,"w":224,"h":90},
	"rotated": false,
	"trimmed": false,
	"spriteSourceSize": {"x":0,"y":0,"w":224,"h":90},
	"sourceSize": {"w":224,"h":90}
},
"fish3.png":
{
	"frame": {"x":224,"y":146,"w":191,"h":110},
	"rotated": false,
	"trimmed": false,
	"spriteSourceSize": {"x":0,"y":0,"w":191,"h":110},
	"sourceSize": {"w":191,"h":110}
},
"fish4.png":
{
	"frame": {"x":0,"y":71,"w":321,"h":40},
	"rotated": false,
	"trimmed": false,
	"spriteSourceSize": {"x":0,"y":0,"w":321,"h":40},
	"sourceSize": {"w":321,"h":40}
},
"fish5.png":
{
	"frame": {"x":170,"y":0,"w":186,"h":53},
	"rotated": false,
	"trimmed": false,
	"spriteSourceSize": {"x":0,"y":0,"w":186,"h":53},
	"sourceSize": {"w":186,"h":53}
},
"fish6.png":
{
	"frame": {"x":321,"y":71,"w":188,"h":75},
	"rotated": false,
	"trimmed": false,
	"spriteSourceSize": {"x":0,"y":0,"w":188,"h":75},
	"sourceSize": {"w":188,"h":75}
}},
"meta": {
	"app": "https://www.codeandweb.com/texturepacker",
	"version": "1.0",
	"image": "fish.png",
	"format": "RGBA8888",
	"size": {"w":512,"h":256},
	"scale": "1",
	"smartupdate": "$TexturePacker:SmartUpdate:edd72f4e7eb800d71421bd7a5e37e722:909cd5b24de806a32820e3e8856a18a5:8d6d90e8f48b9264619fb7c7934eace4$"
}
}
